5 R 기본 소개 – 2025년 하계 산업보건학회
…
6.2.4 pivot longer

데이터를 분석하거나 시각화할 때, 데이터를 긴 형식(long format)으로 변환하는 경우가 많습니다. 긴 형식은 여러 변수의 값을 하나의 열로 모으고, 해당 변수의 이름을 다른 열에 저장하는 방식입니다. 이를 통해 데이터가 더 유연하게 사용될 수 있으며, 특히 ggplot2를 이용한 시각화나 그룹별 분석에서 유용합니다.

select을 이용해서 필요한 변수들만 선택한 후, pivot longer로 데이터를 변환해보도록 하겠습니다.

data5 %>%
  select(idv_id, AGE, sexgp, agegp, bp_high, bp_lwst) %>%
  pivot_longer(
    cols = c(bp_high, bp_lwst),              # 변환할 열 지정
    names_to = "blood_pressure_type",        # 변수명을 저장할 열 이름
    values_to = "blood_pressure_value"       # 변수 값을 저장할 열 이름
  ) 

# A tibble: 202,696 × 6
    idv_id   AGE sexgp agegp blood_pressure_type blood_pressure_value
     <int> <int> <chr> <chr> <chr>                              <int>
 1 3823099    31 남    30    bp_high                              123
 2 3823099    31 남    30    bp_lwst                               75
 3  761158    37 남    30    bp_high                              131
 4  761158    37 남    30    bp_lwst                               77
 5 3915038    33 남    30    bp_high                              118
 6 3915038    33 남    30    bp_lwst                               78
 7 3108477    30 남    30    bp_high                              119
 8 3108477    30 남    30    bp_lwst                               73
 9 4621083    36 남    30    bp_high                              129
10 4621083    36 남    30    bp_lwst                               75
# ℹ 202,686 more rows
…
